[{
    "id": "athome",
    "panelColors": ["#F9D6E5", "#FAF1F3", "#F2D4DE", "#F7E4EB"],
    "gradient": [
      [234, 153, 200, 0.7],
      [246, 206, 192, 0.5],
      [248, 225, 193, 0.6],
      [234, 153, 200, 0.7]
    ],
    "colors": {
      "primary": "#ff86bc",
      "text": "#ff86bc",
      "primaryOn": "#ffffff"
    },
    "heading": "@home cafe",
    "jpHeading": "＠ほぉ〜むカフェ",
    "subHeading": "Concept Cafe '@home cafe' Official Web Site",
    "jpSubHeading": "メイドカフェ「＠ほぉ〜むカフェ」 オフィシャルサイト",
    "date": "2017-2018",
    "thumbnail": "/images/@0,5x/work--atcafe.jpg",
    "sections": [{
        "image": "/images/work--atcafe.jpg",
        "text": "<a href=\"https://cafe-athome.com/\" target=\"_blank\"> https://cafe-athome.com/ </a>"
      },
      {
        "heading": "SUMMARY",
        "text": " <p> Replacing a maid cafe \"@home cafe\" official web site. </p> <p> Being in on from the planning stage. Participating as a director, UX / UI / Visual designer, and coder. </p>",
        "jpText": " <p> メイドカフェ「＠ほぉ〜むカフェ」オフィシャルサイトのリプレース。 </p> <p> 企画段階から関わり、ディレクションおよびフロントエンドのUI/UX/ビジュアルデザイン、コーディングの全てを担当しました。 </p>"
      },
      {
        "image": "/images/work--atcafe-omrice.jpg",
        "heading": "A Trustful Maid Cafe",
        "jpHeading": "信頼できる「メイドカフェ」",
        "text": "<p> Amoung many maid cafes, @home cafe is known for its hight-quality service and highly entertaining form. However, there are still prejudices for this kind of service. I focused balancing of appealing their originality and securing their trust upon designing the site. </p>",
        "jpText": "<p> メイドカフェの中でも世界観とエンターテイメント性にこだわり、高いクォリティのサービスで知られる＠ほぉ〜むカフェ。 その独特な個性を活かし、かつ「メイドカフェ」に対して持たれがちな偏見を取り払うため、尖った個性と安定した信頼感のバランスにこだわりました。 </p>"
      },
      {
        "image": "/images/work--atcafe-cards.jpg",
        "heading": "Drawing Clear Path",
        "jpHeading": "迷わない大規模サイト",
        "text": "<p> We've paid much attention to UX Design from the beginning of the development. Practiced many user testing to provide clear site flow, especially for new users. Also to make the site comfortable for hardcore users. </p>",
        "jpText": "<p> 企画の初期段階からUXデザインを意識し、ユーザーテストを繰り返し行いました。特に数多いメニューのカテゴリ分けと新規ユーザーの導線には気を遣い、新規ユーザーが迷わず、ハードコアユーザーが使いやすいサイトを目指しました。 </p>"
      }
    ]
  },
  {
    "id": "ateditor",
    "panelColors": ["#CABFE9", "#F2EFFF", "#D7CCF6", "#E6DFFF"],
    "panelImage": "panel--heart-purple.svg",
    "gradient": [
      [113, 113, 214, 0.7],
      [170, 176, 226, 0.5],
      [193, 175, 248, 0.6],
      [113, 113, 214, 0.7]
    ],
    "colors": {
      "primary": "#735fe2",
      "text": "#735fe2",
      "primaryOn": "#ffffff"
    },
    "heading": "Custom CMS Post Editor",
    "jpHeading": "カスタムCMS記事エディタ",
    "date": "2017-2018",
    "subHeading": "Custom WordPress Post Editor for @home cafe",
    "jpSubHeading": "＠ほぉ〜むカフェオフィシャルサイト用カスタムWordPress記事エディタ",
    "thumbnail": "/images/@0,5x/work--ateditor.jpg"
  },
  {
    "id": "vpresentation",
    "panelColors": ["#4958A9", "#959CC8", "#5668AA", "#707DBB"],
    "panelImage": "panel--circles.svg",
    "gradient": [
      [0, 0, 0, 0.7],
      [160, 195, 258, 0.7],
      [60, 60, 60, 0.5],
      [0, 0, 0, 0.7]
    ],
    "colors": {
      "primary": "#3f476b",
      "text": "#3f476b",
      "primaryOn": "#ffffff"
    },
    "heading": "Dai Undokai (Vue Slideshow)",
    "jpHeading": "Dai Undokai (Vue Slideshow)",
    "date": "2019",
    "subHeading": "A Presentation App made by Vue.js, for \"Dai Undokai\"",
    "jpSubHeading": "「Dai Undokai」のためのVue.js製スライドショーアプリ",
    "thumbnail": "/images/@0,5x/work--undokai.jpg"
  }
]
