<?xml version="1.0" encoding="utf-8"?>
<!-- Generator: Adobe Illustrator 23.0.2, SVG Export Plug-In . SVG Version: 6.00 Build 0)  -->
<svg version="1.1" id="Capa_1" xmlns="http://www.w3.org/2000/svg" xmlns:xlink="http://www.w3.org/1999/xlink" x="0px" y="0px"
	 viewBox="0 0 512 512" style="enable-background:new 0 0 512 512;" xml:space="preserve">
<style type="text/css">
	.st0{opacity:0.54;}
	.st1{opacity:8.000000e-02;}
	.st2{opacity:0.31;}
	.st3{opacity:0.77;}
</style>
<g class="st0">
	<path d="M25.8,486.2L25.8,486.2C25.8,359,128.9,256,256,256l0,0l0,0C256,383.1,153,486.2,25.8,486.2L25.8,486.2z"/>
</g>
<g class="st1">
	<path d="M256,256L256,256C256,128.9,153,25.8,25.8,25.8l0,0l0,0C25.8,153,128.9,256,256,256L256,256z"/>
</g>
<g class="st2">
	<path d="M486.2,486.2L486.2,486.2C486.2,359,383.1,256,256,256l0,0l0,0C256,383.1,359,486.2,486.2,486.2L486.2,486.2z"/>
</g>
<g class="st3">
	<path d="M256,256L256,256c0-127.1,103-230.2,230.2-230.2l0,0l0,0C486.2,153,383.1,256,256,256L256,256z"/>
</g>
<g>
	<g>
		<path d="M233.9,278.1c-2.1,20.4-7.3,40.3-15.3,59.3c-10.5,24.9-25.6,47.3-44.8,66.5c-19.2,19.2-41.6,34.3-66.5,44.8
			c-19,8-38.8,13.1-59.3,15.3c2.1-20.4,7.3-40.3,15.3-59.3c10.5-24.9,25.6-47.3,44.8-66.5c19.2-19.2,41.6-34.3,66.5-44.8
			C193.6,285.4,213.4,280.3,233.9,278.1 M256,256C128.9,256,25.8,359,25.8,486.2C153,486.2,256,383.1,256,256L256,256z"/>
	</g>
	<g>
		<path d="M48,48c20.4,2.1,40.3,7.3,59.3,15.3c24.9,10.5,47.3,25.6,66.5,44.8c19.2,19.2,34.3,41.6,44.8,66.5
			c8,19,13.1,38.8,15.3,59.3c-20.4-2.1-40.3-7.3-59.3-15.3c-24.9-10.5-47.3-25.6-66.5-44.8c-19.2-19.2-34.3-41.6-44.8-66.5
			C55.2,88.3,50.1,68.4,48,48 M25.8,25.8C25.8,153,128.9,256,256,256C256,128.9,153,25.8,25.8,25.8L25.8,25.8z"/>
	</g>
	<g>
		<path d="M278.1,278.1c20.4,2.1,40.3,7.3,59.3,15.3c24.9,10.5,47.3,25.6,66.5,44.8c19.2,19.2,34.3,41.6,44.8,66.5
			c8,19,13.1,38.8,15.3,59.3c-20.4-2.1-40.3-7.3-59.3-15.3c-24.9-10.5-47.3-25.6-66.5-44.8c-19.2-19.2-34.3-41.6-44.8-66.5
			C285.4,318.4,280.3,298.6,278.1,278.1 M256,256c0,127.1,103,230.2,230.2,230.2C486.2,359,383.1,256,256,256L256,256z"/>
	</g>
	<g>
		<path d="M464,48c-2.1,20.4-7.3,40.3-15.3,59.3c-10.5,24.9-25.6,47.3-44.8,66.5c-19.2,19.2-41.6,34.3-66.5,44.8
			c-19,8-38.8,13.1-59.3,15.3c2.1-20.4,7.3-40.3,15.3-59.3c10.5-24.9,25.6-47.3,44.8-66.5c19.2-19.2,41.6-34.3,66.5-44.8
			C423.7,55.2,443.6,50.1,464,48 M486.2,25.8C359,25.8,256,128.9,256,256C383.1,256,486.2,153,486.2,25.8L486.2,25.8z"/>
	</g>
</g>
</svg>
