<?xml version="1.0" encoding="utf-8"?>
<!-- Generator: Adobe Illustrator 23.0.2, SVG Export Plug-In . SVG Version: 6.00 Build 0)  -->
<svg version="1.1" id="Layer_1" xmlns="http://www.w3.org/2000/svg" xmlns:xlink="http://www.w3.org/1999/xlink" x="0px" y="0px"
	 viewBox="0 0 512 512" style="enable-background:new 0 0 512 512;" xml:space="preserve">
<style type="text/css">
	.st0{fill:#8BB9EC;}
	.st1{fill:#5E96E5;}
	.st2{fill:#4983D7;}
	.st3{fill:#72ADE7;}
</style>
<path class="st0" d="M256,512L256,512C114.6,512,0,397.4,0,256l0,0l0,0C141.4,256,256,370.6,256,512L256,512z"/>
<path class="st1" d="M256,0L256,0C114.6,0,0,114.6,0,256l0,0l0,0C141.4,256,256,141.4,256,0L256,0z"/>
<path class="st2" d="M256,512L256,512c141.4,0,256-114.6,256-256l0,0l0,0C370.6,256,256,370.6,256,512L256,512z"/>
<path class="st3" d="M256,0L256,0c141.4,0,256,114.6,256,256l0,0l0,0C370.6,256,256,141.4,256,0L256,0z"/>
</svg>
