<?xml version="1.0" encoding="utf-8"?>
<!-- Generator: Adobe Illustrator 23.0.2, SVG Export Plug-In . SVG Version: 6.00 Build 0)  -->
<svg version="1.1" id="Layer_1" xmlns="http://www.w3.org/2000/svg" xmlns:xlink="http://www.w3.org/1999/xlink" x="0px" y="0px"
	 viewBox="0 0 512 512" style="enable-background:new 0 0 512 512;" xml:space="preserve">
<style type="text/css">
	.st0{fill:#F7F7F7;}
	.st1{fill:#EFEFEF;}
	.st2{fill:#E6E6E6;}
	.st3{fill:#DEDEDE;}
</style>
<g>
	<path class="st0" d="M44,256.1c61.8,91.1,171.2,169.5,212,252.8V256.1H44z"/>
	<path class="st1" d="M256,256.1V131.5C256.2,60.8,198.8,3.3,128.2,3.2C59.9,3,3.6,56.4,0,124.7v14.7c2,41.6,19.1,80.2,44,116.7H256
		z"/>
	<path class="st2" d="M384.2,3.3C313.3,3.3,256,60.7,256,131.5l0,0v124.6h212c24.7-36.5,42-75.1,44-116.9v-14.8
		C508.2,56.4,452.1,3.3,384.2,3.3z"/>
	<path class="st3" d="M256,508.8c40.8-83.3,150.2-161.6,212-252.8H256V508.8z"/>
</g>
</svg>
